{
    "id": 5699,
    "type": "personal",
    "details": {
        "firstName": "Camilo",
        "lastName": "Rodriguez Gaviria",
        "dateOfBirth": "1946-10-27",
        "phoneNumber": "+442038087139",
        "avatar": null,
        "occupation": null,
        "occupations": null,
        "primaryAddress": 7189513
    }
}
