{
    "id": 47865002,
    "user": 5466147,
    "targetAccount": 13796745,
    "sourceAccount": null,
    "quote": 1103159,
    "quoteUuid": "1103159",
    "status": "incoming_payment_waiting",
    "reference": "to my friend",
    "rate": 1,
    "created": "2020-01-24 08:26:18",
    "business": null,
    "transferRequest": null,
    "details": {
        "reference": "to my friend"
    },
    "hasActiveIssues": false,
    "sourceCurrency": "EUR",
    "sourceValue": 0.0,
    "targetCurrency": "EUR",
    "targetValue": 600.0,
    "customerTransactionId": "1766f9bc-3e83-11ea-b77f-2e728ce88125"
}
